{
  "data": {
    "pagination": {
      "last_visible_page": 72,
      "has_next_page": true,
      "current_page": 1,
      "items": {
        "count": 1,
        "total": 72,
        "per_page": 1
      }
    },
    "data": [
      {
        "mal_id": 59978,
        "url": "https://myanimelist.net/anime/59978/Sousou_no_Frieren_2nd_Season",
        "images": {
          "jpg": {
            "image_url": "https://cdn.myanimelist.net/images/anime/1921/154528.jpg",
            "small_image_url": "https://cdn.myanimelist.net/images/anime/1921/154528t.jpg",
            "large_image_url": "https://cdn.myanimelist.net/images/anime/1921/154528l.jpg"
          },
          "webp": {
            "image_url": "https://cdn.myanimelist.net/images/anime/1921/154528.webp",
            "small_image_url": "https://cdn.myanimelist.net/images/anime/1921/154528t.webp",
            "large_image_url": "https://cdn.myanimelist.net/images/anime/1921/154528l.webp"
          }
        },
        "trailer": {
          "youtube_id": null,
          "url": null,
          "embed_url": "https://www.youtube-nocookie.com/embed/RH-FcW94z00?enablejsapi=1&wmode=opaque&autoplay=1",
          "images": {
            "image_url": null,
            "small_image_url": null,
            "medium_image_url": null,
            "large_image_url": null,
            "maximum_image_url": null
          }
        },
        "approved": true,
        "titles": [
          {
            "type": "Default",
            "title": "Sousou no Frieren 2nd Season"
          },
          {
            "type": "Synonym",
            "title": "Frieren at the Funeral Season 2"
          },
          {
            "type": "Japanese",
            "title": "葬送のフリーレン 第2期"
          },
          {
            "type": "English",
            "title": "Frieren: Beyond Journey's End Season 2"
          }
        ],
        "title": "Sousou no Frieren 2nd Season",
        "title_english": "Frieren: Beyond Journey's End Season 2",
        "title_japanese": "葬送のフリーレン 第2期",
        "title_synonyms": [
          "Frieren at the Funeral Season 2"
        ],
        "type": "TV",
        "source": "Manga",
        "episodes": 10,
        "status": "Finished Airing",
        "airing": false,
        "aired": {
          "from": "2026-01-16T00:00:00+00:00",
          "to": "2026-03-27T00:00:00+00:00",
          "prop": {
            "from": {
              "day": 16,
              "month": 1,
              "year": 2026
            },
            "to": {
              "day": 27,
              "month": 3,
              "year": 2026
            }
          },
          "string": "Jan 16, 2026 to Mar 27, 2026"
        },
        "duration": "24 min per ep",
        "rating": "PG-13 - Teens 13 or older",
        "score": 8.87,
        "scored_by": 247672,
        "rank": 28,
        "popularity": 457,
        "members": 556255,
        "favorites": 7388,
        "synopsis": "Following the First-Class Mage Exam, the trio—elven mage Frieren, warrior Stark, and first-class mage Fern—gains access to the dangerous Northern Plateau. As the party presses onward toward Aureole, formidable adversaries force Stark to confront his insecurities, solidifying his resolve and his role as the party's frontliner. Meanwhile, Fern continues to cherish the gifts she has been blessed with throughout her life, each a reminder of those she holds dear.\n\nFrieren—still honoring her vow to understand humanity—revisits memories of her journey with the Hero's party and her fleeting encounter with a legendary figure. As she reflects on the passage of time, the elven mage quietly questions whether she has truly changed, yet in the small, almost subtle choices that she makes, there are signs that she might have become more human than she realizes.\n\n[Written by MAL Rewrite]",
        "background": "Sousou no Frieren 2nd Season aired on Nippon TV's Friday Anime Night block.",
        "season": "winter",
        "year": 2026,
        "broadcast": {
          "day": "Fridays",
          "time": "23:00",
          "timezone": "Asia/Tokyo",
          "string": "Fridays at 23:00 (JST)"
        },
        "producers": [
          {
            "mal_id": 17,
            "type": "anime",
            "name": "Aniplex",
            "url": "https://myanimelist.net/anime/producer/17/Aniplex"
          },
          {
            "mal_id": 53,
            "type": "anime",
            "name": "Dentsu",
            "url": "https://myanimelist.net/anime/producer/53/Dentsu"
          },
          {
            "mal_id": 62,
            "type": "anime",
            "name": "Shogakukan-Shueisha Productions",
            "url": "https://myanimelist.net/anime/producer/62/Shogakukan-Shueisha_Productions"
          },
          {
            "mal_id": 1003,
            "type": "anime",
            "name": "Nippon Television Network",
            "url": "https://myanimelist.net/anime/producer/1003/Nippon_Television_Network"
          },
          {
            "mal_id": 1143,
            "type": "anime",
            "name": "TOHO animation",
            "url": "https://myanimelist.net/anime/producer/1143/TOHO_animation"
          },
          {
            "mal_id": 1294,
            "type": "anime",
            "name": "Sound Team Don Juan",
            "url": "https://myanimelist.net/anime/producer/1294/Sound_Team_Don_Juan"
          },
          {
            "mal_id": 1406,
            "type": "anime",
            "name": "Miracle Bus",
            "url": "https://myanimelist.net/anime/producer/1406/Miracle_Bus"
          },
          {
            "mal_id": 1430,
            "type": "anime",
            "name": "Shogakukan",
            "url": "https://myanimelist.net/anime/producer/1430/Shogakukan"
          },
          {
            "mal_id": 2229,
            "type": "anime",
            "name": "Toho Music",
            "url": "https://myanimelist.net/anime/producer/2229/Toho_Music"
          }
        ],
        "licensors": [],
        "studios": [
          {
            "mal_id": 11,
            "type": "anime",
            "name": "Madhouse",
            "url": "https://myanimelist.net/anime/producer/11/Madhouse"
          }
        ],
        "genres": [
          {
            "mal_id": 2,
            "type": "anime",
            "name": "Adventure",
            "url": "https://myanimelist.net/anime/genre/2/Adventure"
          },
          {
            "mal_id": 8,
            "type": "anime",
            "name": "Drama",
            "url": "https://myanimelist.net/anime/genre/8/Drama"
          },
          {
            "mal_id": 10,
            "type": "anime",
            "name": "Fantasy",
            "url": "https://myanimelist.net/anime/genre/10/Fantasy"
          }
        ],
        "explicit_genres": [],
        "themes": [],
        "demographics": [
          {
            "mal_id": 27,
            "type": "anime",
            "name": "Shounen",
            "url": "https://myanimelist.net/anime/genre/27/Shounen"
          }
        ]
      }
    ]
  },
  "expireAt": 1781307179899
}